Chapter 5 Interactive component | Exploring Unemployment Conditions in the United States After Covid-19
…
            Exploring Unemployment Conditions in the United States After Covid-19

Chapter 5 Interactive component

## # A tibble: 1,836 × 3
##    Month        State   Unemployment_Rate
##    <chr>        <chr>               <dbl>
##  1 October2019  Alabama               3  
##  2 November2019 Alabama               3.1
##  3 December2019 Alabama               3.2
##  4 January2020  Alabama               3.3
##  5 February2020 Alabama               3.4
##  6 March2020    Alabama               3.6
##  7 April2020    Alabama              13.7
##  8 May2020      Alabama              10.4
##  9 June2020     Alabama               8.7
## 10 July2020     Alabama               7.7
## # … with 1,826 more rows
