Chapter 4 Results | Exploring Unemployment Conditions in the United States After Covid-19
…
4.1.2 4.2.1. Histogram

## # A tibble: 153 × 3
##    State    Year                 mean
##    <chr>    <chr>               <dbl>
##  1 Alabama  Oct 2019 ~ Sep 2020  6.07
##  2 Alabama  Oct 2020 ~ Sep 2021  3.88
##  3 Alabama  Oct 2021 ~ Sep 2022  2.85
##  4 Alaska   Oct 2019 ~ Sep 2020  7.76
##  5 Alaska   Oct 2020 ~ Sep 2021  6.85
##  6 Alaska   Oct 2021 ~ Sep 2022  5   
##  7 Arizona  Oct 2019 ~ Sep 2020  7.29
##  8 Arizona  Oct 2020 ~ Sep 2021  5.6 
##  9 Arizona  Oct 2021 ~ Sep 2022  3.54
## 10 Arkansas Oct 2019 ~ Sep 2020  5.66
## # … with 143 more rows
…
